<?xml version="1.0" standalone="no"?>
<!DOCTYPE svg PUBLIC "-//W3C//DTD SVG 1.1//EN" "http://www.w3.org/Graphics/SVG/1.1/DTD/svg11.dtd" >
<svg xmlns="http://www.w3.org/2000/svg">
<metadata>Generated by IcoMoon</metadata>
<defs>
<font id="icomoon" horiz-adv-x="1024">
<font-face units-per-em="1024" ascent="960" descent="-64" />
<missing-glyph horiz-adv-x="1024" />
<glyph unicode="&#x20;" horiz-adv-x="512" d="" />
<glyph unicode="&#xe600;" glyph-name="menu" d="M64 768h896v-192h-896zM64 512h896v-192h-896zM64 256h896v-192h-896z" />
<glyph unicode="&#xe601;" glyph-name="showMenu" d="M0 896h1024v-128h-1024zM384 704h640v-128h-640zM384 512h640v-128h-640zM384 320h640v-128h-640zM0 128h1024v-128h-1024zM0 256v384l256-192z" />
<glyph unicode="&#xe602;" glyph-name="hideMenu" d="M0 896h1024v-128h-1024zM384 704h640v-128h-640zM384 512h640v-128h-640zM384 320h640v-128h-640zM0 128h1024v-128h-1024zM256 640v-384l-256 192z" />
<glyph unicode="&#xe603;" glyph-name="google" d="M0.806 90.336c-0.244 2.532-0.452 5.070-0.584 7.63 0.13-2.56 0.34-5.098 0.584-7.63zM235.908 394.852c92.010-2.738 153.734 92.698 137.862 213.198-15.894 120.48-103.396 217.168-195.408 219.922-92.026 2.73-153.74-89.482-137.852-210 15.882-120.468 103.352-220.374 195.398-223.12zM1024 704v85.31c0 93.88-76.782 170.69-170.658 170.69h-682.656c-92.276 0-168.012-74.232-170.564-165.926 58.362 51.386 139.324 94.316 222.874 94.316 89.304 0 357.244 0 357.244 0l-79.948-67.618h-113.268c75.13-28.804 115.156-116.124 115.156-205.722 0-75.248-41.81-139.954-100.888-185.968-57.644-44.902-68.572-63.708-68.572-101.878 0-32.578 61.746-88 94.032-110.788 94.382-66.538 124.916-128.312 124.916-231.456 0-16.428-2.042-32.83-6.066-48.96h307.742c93.874 0 170.656 76.75 170.656 170.69v533.308h-192v-191.998h-64v192h-191.998v64h191.998v192h64v-192h192zM185.886 194.064c21.614 0 41.422 0.59 61.936 0.59-27.146 26.334-48.626 58.6-48.626 98.38 0 23.608 7.564 46.336 18.134 66.52-10.782-0.77-21.79-0.994-33.126-0.994-74.356 0-137.506 24.076-184.204 63.854v-67.242l0.006-201.73c53.44 25.374 116.888 40.622 185.88 40.622zM3.42 72.742c-1.112 5.458-1.966 11.006-2.542 16.634 0.574-5.628 1.43-11.176 2.542-16.634zM455.45 7.154c-15.058 58.806-68.454 87.964-142.888 139.568-27.072 8.732-56.894 13.874-88.894 14.208-89.618 0.964-173.108-34.942-220.216-88.372 15.92-77.706 85.034-136.558 167.234-136.558h286.444c1.816 11.128 2.696 22.632 2.696 34.432 0 12.534-1.534 24.792-4.376 36.722z" />
<glyph unicode="&#xe604;" glyph-name="facebook" d="M853.35 960h-682.702c-94.25 0-170.648-76.42-170.648-170.686v-682.63c0-94.266 76.398-170.684 170.648-170.684h341.352v448h-128v128h128v96c0 88.366 71.634 160 160 160h160v-128h-160c-17.674 0-32-14.328-32-32v-96h176l-32-128h-144v-448h213.35c94.25 0 170.65 76.418 170.65 170.684v682.63c0 94.266-76.4 170.686-170.65 170.686z" />
<glyph unicode="&#xe605;" glyph-name="twitter" d="M853.342 960h-682.656c-93.874 0-170.686-76.81-170.686-170.69v-682.624c0-93.936 76.812-170.686 170.686-170.686h682.656c93.876 0 170.658 76.75 170.658 170.69v682.62c0 93.88-76.782 170.69-170.658 170.69zM766.478 578.52c0.252-5.632 0.38-11.296 0.38-16.988 0-173.51-132.070-373.588-373.584-373.588-74.15 0-143.168 21.738-201.276 58.996 10.272-1.218 20.724-1.84 31.322-1.84 61.518 0 118.134 20.992 163.072 56.21-57.458 1.054-105.948 39.020-122.658 91.184 8.018-1.532 16.244-2.36 24.704-2.36 11.976 0 23.578 1.61 34.592 4.61-60.064 12.066-105.326 65.132-105.326 128.75 0 0.554 0 1.104 0.012 1.652 17.7-9.834 37.948-15.742 59.47-16.424-35.232 23.546-58.414 63.736-58.414 109.292 0 24.064 6.476 46.62 17.78 66.010 64.76-79.44 161.51-131.712 270.634-137.19-2.238 9.612-3.4 19.632-3.4 29.924 0 72.512 58.792 131.298 131.304 131.298 37.766 0 71.892-15.944 95.842-41.462 29.908 5.886 58.008 16.814 83.38 31.862-9.804-30.662-30.624-56.394-57.732-72.644 26.56 3.174 51.866 10.232 75.412 20.674-17.594-26.328-39.854-49.454-65.514-67.966z" />
<glyph unicode="&#xe606;" glyph-name="github" d="M512 128.108c-19.154 0-38.308 9.916-58.142 29.75-7.81 7.81-7.81 20.474 0 28.286 7.81 7.808 20.474 7.808 28.286 0 12.206-12.21 21.972-18.144 29.856-18.144 7.882 0 17.65 5.934 29.858 18.142 7.812 7.808 20.472 7.808 28.286 0 7.81-7.81 7.81-20.474 0-28.286-19.836-19.832-38.99-29.748-58.144-29.748zM0 434.508c0-49.892 4.266-95.122 12.8-135.682s20.534-75.74 36-105.532c15.466-29.792 35.022-55.904 58.666-78.34s49.332-40.92 77.066-55.458c27.734-14.536 59.466-26.296 95.2-35.266 35.732-8.974 72.088-15.256 109.066-18.846s77.69-5.384 122.134-5.384c44.444 0 85.242 1.79 122.398 5.38s73.602 9.872 109.332 18.846c35.734 8.974 67.558 20.73 95.468 35.266 27.91 14.538 53.778 33.026 77.598 55.458 23.824 22.436 43.47 48.548 58.934 78.34 15.47 29.794 27.56 64.974 36.27 105.532 8.71 40.56 13.066 85.788 13.066 135.68 0 89.38-27.736 166.372-83.2 230.982 3.2 8.616 5.954 18.486 8.266 29.614 2.308 11.128 4.532 26.832 6.664 47.112 2.138 20.282 1.336 43.704-2.398 70.264-3.734 26.564-10.754 53.664-21.066 81.302l-8 1.618c-5.332 1.076-14.042 0.718-26.132-1.080-12.086-1.794-26.222-5.022-42.398-9.69-16.176-4.664-37.066-13.908-62.668-27.728-25.598-13.818-52.62-31.318-81.066-52.496-48.356 14.718-115.020 30.116-200 30.116-84.976 0-151.822-15.396-200.53-30.114-28.446 21.18-55.556 38.588-81.334 52.228-25.78 13.642-46.402 22.974-61.868 27.998-15.468 5.024-29.778 8.256-42.934 9.69-13.156 1.436-21.602 1.886-25.334 1.346-3.732-0.538-6.488-1.166-8.266-1.884-10.314-27.64-17.424-54.74-21.336-81.304-3.91-26.56-4.8-49.892-2.666-69.992 2.134-20.102 4.444-35.898 6.934-47.382 2.49-11.486 5.334-21.358 8.534-29.614-55.466-64.25-83.2-141.242-83.2-230.98zM136.536 320.596c0 58.022 21.332 110.638 64 157.856 12.8 14.406 27.646 25.312 44.534 32.712 16.89 7.402 36.088 11.606 57.6 12.606s42.044 0.8 61.6-0.6c19.556-1.402 43.734-3.302 72.534-5.702 28.798-2.404 53.688-3.602 74.666-3.602 20.976 0 45.868 1.2 74.664 3.602 28.806 2.4 52.982 4.3 72.536 5.702 19.56 1.4 40.090 1.6 61.602 0.6 21.512-1.002 40.802-5.204 57.868-12.606 17.066-7.4 32-18.306 44.8-32.712 42.664-47.218 64-99.834 64-157.856 0-34.012-3.554-64.324-10.668-90.934-7.11-26.612-16.090-48.916-26.934-66.922-10.844-18.008-26.048-33.218-45.598-45.62-19.558-12.406-38.492-22.010-56.8-28.81-18.312-6.8-41.958-12.104-70.934-15.906-28.982-3.796-54.934-6.102-77.872-6.9-22.934-0.8-51.82-1.2-86.664-1.2s-63.644 0.402-86.4 1.2c-22.756 0.798-48.622 3.104-77.6 6.9-28.978 3.802-52.622 9.104-70.934 15.906-18.31 6.802-37.244 16.404-56.8 28.81-19.556 12.404-34.756 27.612-45.6 45.62-10.846 18.006-19.824 40.31-26.934 66.922-7.11 26.61-10.666 56.922-10.666 90.934zM256 351.996c0 53.019 28.654 96 64 96s64-42.981 64-96c0-53.019-28.654-96-64-96s-64 42.981-64 96zM640 351.996c0 53.019 28.654 96 64 96s64-42.981 64-96c0-53.019-28.654-96-64-96s-64 42.981-64 96z" />
</font></defs></svg>